[2022-04-04 13:39:36]:[DEBUG]:STREAM b'IHDR' 16 13
[2022-04-04 13:39:36]:[DEBUG]:STREAM b'bKGD' 41 6
[2022-04-04 13:39:36]:[DEBUG]:b'bKGD' 41 6 (unknown)
[2022-04-04 13:39:36]:[DEBUG]:STREAM b'IDAT' 59 2192
[2022-04-04 13:39:36]:[DEBUG]:STREAM b'IHDR' 16 13
[2022-04-04 13:39:36]:[DEBUG]:STREAM b'pHYs' 41 9
[2022-04-04 13:39:36]:[DEBUG]:STREAM b'IDAT' 62 881
[2022-04-04 13:39:36]:[DEBUG]:STREAM b'IHDR' 16 13
[2022-04-04 13:39:36]:[DEBUG]:STREAM b'IDAT' 41 8192
[2022-04-04 13:39:36]:[DEBUG]:STREAM b'IHDR' 16 13
[2022-04-04 13:39:36]:[DEBUG]:STREAM b'IDAT' 41 65262
[2022-04-04 13:39:36]:[INFO]:CEF Python 66.1
[2022-04-04 13:39:36]:[INFO]:Python 3.6.13 64bit
[2022-04-04 13:39:36]:[INFO]:Tk 8.6.6
[2022-04-04 13:39:36]:[INFO]:['COM1', 'COM2', 'COM3', 'COM4', 'COM5', 'COM6']
[2022-04-04 13:39:36]:[INFO]:Mo COM doi tuong:
[2022-04-04 13:39:36]:[INFO]:Mo: COM5
[2022-04-04 13:39:36]:[INFO]:START:
[2022-04-04 13:39:41]:[INFO]:CAM is checking...
[2022-04-04 13:39:41]:[INFO]:RS232: TRANSMIT: KDCAMCHECKING
[2022-04-04 13:39:41]:[INFO]:KDCAMCHECK: CAM1 - ID CAM: D:\IDA\KetQuaBaiThi\Test_24012022\TS4_2412022\VideoBaiThi\BaiThiSo8\cam1\cam1.avi
[2022-04-04 13:39:41]:[INFO]:KDCAMCHECK: CAM2 - ID CAM: D:\IDA\KetQuaBaiThi\Test_24012022\TS4_2412022\VideoBaiThi\BaiThiSo8\cam2\cam2.avi
[2022-04-04 13:39:41]:[INFO]:KDCAMCHECK: CAM3 - ID CAM: D:\Backup\IDA\Video\Lan3\Cam3_4\2P\cam3\cam3.avi
[2022-04-04 13:39:41]:[INFO]:KDCAMCHECK: CAM4 - ID CAM: D:\Backup\IDA\Video\Lan2\cam4\cam4.avi
[2022-04-04 13:39:41]:[INFO]:KDCAMCHECK: CAM5 - ID CAM: D:\IDA\KetQuaBaiThi\Test_24012022\TS4_2412022\VideoBaiThi\BaiThiSo8\cam5\cam5.avi
[2022-04-04 13:39:41]:[INFO]:KDCAMCHECK: CAM6 - ID CAM: D:\IDA\KetQuaBaiThi\Test_24012022\TS4_2412022\VideoBaiThi\BaiThiSo8\cam6\cam6.avi
[2022-04-04 13:39:41]:[INFO]:RS232: TRANSMIT: KDCAMOK:1
[2022-04-04 13:39:41]:[INFO]:RS232: TRANSMIT: KDCAMOK:2
[2022-04-04 13:39:41]:[INFO]:RS232: TRANSMIT: KDCAMOK:3
[2022-04-04 13:39:41]:[INFO]:RS232: TRANSMIT: KDCAMOK:4
[2022-04-04 13:39:41]:[INFO]:RS232: TRANSMIT: KDCAMOK:5
[2022-04-04 13:39:41]:[INFO]:RS232: TRANSMIT: KDCAMOK:6
[2022-04-04 13:39:42]:[WARNING]:MAKEDIR: Ma TS rong! Tu dong tao ma TS: 
[2022-04-04 13:39:42]:[INFO]:MAKEDIR: FOLDER Thi sinh: TS6_442022
[2022-04-04 13:39:42]:[INFO]:LAYOUT: NEW:TS6
[2022-04-04 13:39:47]:[INFO]:LAYOUT: Da nhan nut START:HD
[2022-04-04 13:39:47]:[ERROR]:LOI XOA LOG HANDLE:
Traceback (most recent call last):
  File ".\myLib\IDAProcess.py", line 380, in StartFolder
    baithi_logger.removeHandler(self.logHandler)
AttributeError: 'Layout' object has no attribute 'logHandler'

[2022-04-04 13:39:47]:[INFO]:Creat Log File: D:/IDA/KetQuaBaiThi/Test_04042022/TS6_442022/Log.log
[2022-04-04 13:39:47]:[INFO]:File Created:
[2022-04-04 13:39:47]:[INFO]:


================================================*** START: HD ***================================================
[2022-04-04 13:39:47]:[INFO]:   +SEGMEN Process
[2022-04-04 13:39:47]:[INFO]:   *** Process: START ***
[2022-04-04 13:39:47]:[INFO]:   +ID Process: cam3, cam4
[2022-04-04 13:39:47]:[INFO]:   +STARTED: cam3
[2022-04-04 13:39:47]:[INFO]:   +STARTED: cam4
[2022-04-04 13:39:47]:[INFO]:   *** Process: RUNNING ***
[2022-04-04 13:39:48]:[INFO]:===================*** Da start ***================================================

[2022-04-04 13:39:48]:[INFO]:RS232: TRANSMIT: HDREADY
[2022-04-04 13:39:54]:[INFO]:IMAGE PROCESS: DEVACH:cam4
[2022-04-04 13:39:54]:[INFO]:RS232: TRANSMIT: DEVACH
[2022-04-04 13:39:54]:[INFO]:IMAGE PROCESS: DEVACH:cam4
[2022-04-04 13:39:54]:[INFO]:RS232: TRANSMIT: DEVACH
[2022-04-04 13:39:55]:[INFO]:IMAGE PROCESS: DEVACH:cam4
[2022-04-04 13:39:55]:[INFO]:RS232: TRANSMIT: DEVACH
[2022-04-04 13:39:59]:[INFO]:IMAGE PROCESS: DEVACH:cam3
[2022-04-04 13:39:59]:[INFO]:RS232: TRANSMIT: DEVACH
[2022-04-04 13:40:02]:[INFO]:IMAGE PROCESS: DEVACH:cam3
[2022-04-04 13:40:02]:[INFO]:RS232: TRANSMIT: DEVACH
[2022-04-04 13:40:03]:[INFO]:IMAGE PROCESS: DEVACH:cam3
[2022-04-04 13:40:03]:[INFO]:RS232: TRANSMIT: DEVACH
[2022-04-04 13:40:03]:[INFO]:IMAGE PROCESS: DEVACH:cam3
[2022-04-04 13:40:03]:[INFO]:RS232: TRANSMIT: DEVACH
[2022-04-04 13:40:03]:[INFO]:IMAGE PROCESS: DEVACH:cam3
[2022-04-04 13:40:03]:[INFO]:RS232: TRANSMIT: DEVACH
[2022-04-04 13:40:04]:[INFO]:IMAGE PROCESS: DEVACH:cam3
[2022-04-04 13:40:04]:[INFO]:RS232: TRANSMIT: DEVACH
[2022-04-04 13:40:04]:[INFO]:IMAGE PROCESS: DEVACH:cam3
[2022-04-04 13:40:04]:[INFO]:RS232: TRANSMIT: DEVACH
[2022-04-04 13:40:05]:[INFO]:IMAGE PROCESS: DEVACH:cam3
[2022-04-04 13:40:05]:[INFO]:RS232: TRANSMIT: DEVACH
[2022-04-04 13:40:05]:[INFO]:IMAGE PROCESS: DEVACH:cam3
[2022-04-04 13:40:05]:[INFO]:RS232: TRANSMIT: DEVACH
[2022-04-04 13:40:05]:[INFO]:IMAGE PROCESS: DEVACH:cam3
[2022-04-04 13:40:05]:[INFO]:RS232: TRANSMIT: DEVACH
[2022-04-04 13:40:06]:[INFO]:IMAGE PROCESS: DEVACH:cam3
[2022-04-04 13:40:06]:[INFO]:RS232: TRANSMIT: DEVACH
[2022-04-04 13:40:20]:[INFO]:IMAGE PROCESS: DEVACH:cam3
[2022-04-04 13:40:20]:[INFO]:RS232: TRANSMIT: DEVACH
[2022-04-04 13:40:20]:[INFO]:IMAGE PROCESS: DEVACH:cam3
[2022-04-04 13:40:20]:[INFO]:RS232: TRANSMIT: DEVACH
[2022-04-04 13:40:20]:[INFO]:IMAGE PROCESS: DEVACH:cam3
[2022-04-04 13:40:20]:[INFO]:RS232: TRANSMIT: DEVACH
[2022-04-04 13:40:21]:[INFO]:IMAGE PROCESS: DEVACH:cam3
[2022-04-04 13:40:21]:[INFO]:RS232: TRANSMIT: DEVACH
[2022-04-04 13:40:21]:[INFO]:IMAGE PROCESS: DEVACH:cam3
[2022-04-04 13:40:21]:[INFO]:RS232: TRANSMIT: DEVACH
[2022-04-04 13:40:22]:[INFO]:IMAGE PROCESS: DEVACH:cam3
[2022-04-04 13:40:22]:[INFO]:RS232: TRANSMIT: DEVACH
[2022-04-04 13:40:22]:[INFO]:IMAGE PROCESS: DEVACH:cam3
[2022-04-04 13:40:22]:[INFO]:RS232: TRANSMIT: DEVACH
[2022-04-04 13:40:22]:[INFO]:IMAGE PROCESS: DEVACH:cam3
[2022-04-04 13:40:22]:[INFO]:RS232: TRANSMIT: DEVACH
[2022-04-04 13:40:22]:[INFO]:IMAGE PROCESS: DEVACH:cam3
[2022-04-04 13:40:22]:[INFO]:RS232: TRANSMIT: DEVACH
[2022-04-04 13:40:23]:[INFO]:IMAGE PROCESS: DEVACH:cam3
[2022-04-04 13:40:23]:[INFO]:RS232: TRANSMIT: DEVACH
[2022-04-04 13:40:23]:[INFO]:IMAGE PROCESS: DEVACH:cam3
[2022-04-04 13:40:23]:[INFO]:RS232: TRANSMIT: DEVACH
[2022-04-04 13:40:40]:[INFO]:IMAGE PROCESS: DEVACH:cam3
[2022-04-04 13:40:40]:[INFO]:RS232: TRANSMIT: DEVACH
[2022-04-04 13:40:40]:[INFO]:IMAGE PROCESS: DEVACH:cam3
[2022-04-04 13:40:40]:[INFO]:RS232: TRANSMIT: DEVACH
[2022-04-04 13:40:40]:[INFO]:IMAGE PROCESS: DEVACH:cam3
[2022-04-04 13:40:40]:[INFO]:RS232: TRANSMIT: DEVACH
[2022-04-04 13:40:41]:[INFO]:IMAGE PROCESS: DEVACH:cam3
[2022-04-04 13:40:41]:[INFO]:RS232: TRANSMIT: DEVACH
[2022-04-04 13:40:41]:[INFO]:IMAGE PROCESS: DEVACH:cam3
[2022-04-04 13:40:41]:[INFO]:RS232: TRANSMIT: DEVACH
[2022-04-04 13:40:41]:[INFO]:IMAGE PROCESS: DEVACH:cam3
[2022-04-04 13:40:41]:[INFO]:RS232: TRANSMIT: DEVACH
[2022-04-04 13:40:42]:[INFO]:IMAGE PROCESS: DEVACH:cam3
[2022-04-04 13:40:42]:[INFO]:RS232: TRANSMIT: DEVACH
[2022-04-04 13:40:56]:[INFO]:IMAGE PROCESS: DEVACH:cam4
[2022-04-04 13:40:56]:[INFO]:RS232: TRANSMIT: DEVACH
[2022-04-04 13:40:56]:[INFO]:IMAGE PROCESS: DEVACH:cam4
[2022-04-04 13:40:56]:[INFO]:RS232: TRANSMIT: DEVACH
[2022-04-04 13:40:57]:[INFO]:IMAGE PROCESS: DEVACH:cam4
[2022-04-04 13:40:57]:[INFO]:RS232: TRANSMIT: DEVACH
[2022-04-04 13:40:57]:[INFO]:IMAGE PROCESS: DEVACH:cam4
[2022-04-04 13:40:57]:[INFO]:RS232: TRANSMIT: DEVACH
[2022-04-04 13:40:58]:[INFO]:IMAGE PROCESS: DEVACH:cam4
[2022-04-04 13:40:58]:[INFO]:RS232: TRANSMIT: DEVACH
[2022-04-04 13:40:58]:[INFO]:IMAGE PROCESS: DEVACH:cam4
[2022-04-04 13:40:58]:[INFO]:RS232: TRANSMIT: DEVACH
[2022-04-04 13:40:58]:[INFO]:IMAGE PROCESS: DEVACH:cam4
[2022-04-04 13:40:58]:[INFO]:RS232: TRANSMIT: DEVACH
[2022-04-04 13:40:59]:[INFO]:IMAGE PROCESS: DEVACH:cam4
[2022-04-04 13:40:59]:[INFO]:RS232: TRANSMIT: DEVACH
[2022-04-04 13:40:59]:[INFO]:IMAGE PROCESS: DEVACH:cam4
[2022-04-04 13:40:59]:[INFO]:RS232: TRANSMIT: DEVACH
[2022-04-04 13:40:59]:[INFO]:IMAGE PROCESS: DEVACH:cam4
[2022-04-04 13:40:59]:[INFO]:RS232: TRANSMIT: DEVACH
[2022-04-04 13:41:00]:[INFO]:IMAGE PROCESS: DEVACH:cam4
[2022-04-04 13:41:00]:[INFO]:RS232: TRANSMIT: DEVACH
[2022-04-04 13:41:00]:[INFO]:IMAGE PROCESS: DEVACH:cam4
[2022-04-04 13:41:00]:[INFO]:RS232: TRANSMIT: DEVACH
[2022-04-04 13:41:00]:[INFO]:IMAGE PROCESS: DEVACH:cam4
[2022-04-04 13:41:00]:[INFO]:RS232: TRANSMIT: DEVACH
[2022-04-04 13:41:01]:[INFO]:IMAGE PROCESS: DEVACH:cam3
[2022-04-04 13:41:01]:[INFO]:RS232: TRANSMIT: DEVACH
[2022-04-04 13:41:01]:[INFO]:IMAGE PROCESS: DEVACH:cam4
[2022-04-04 13:41:01]:[INFO]:RS232: TRANSMIT: DEVACH
[2022-04-04 13:41:01]:[INFO]:IMAGE PROCESS: DEVACH:cam4
[2022-04-04 13:41:01]:[INFO]:RS232: TRANSMIT: DEVACH
[2022-04-04 13:41:01]:[INFO]:IMAGE PROCESS: DEVACH:cam3
[2022-04-04 13:41:01]:[INFO]:RS232: TRANSMIT: DEVACH
[2022-04-04 13:41:01]:[INFO]:IMAGE PROCESS: DEVACH:cam4
[2022-04-04 13:41:01]:[INFO]:RS232: TRANSMIT: DEVACH
[2022-04-04 13:41:02]:[INFO]:IMAGE PROCESS: DEVACH:cam3
[2022-04-04 13:41:02]:[INFO]:RS232: TRANSMIT: DEVACH
[2022-04-04 13:41:02]:[INFO]:IMAGE PROCESS: DEVACH:cam4
[2022-04-04 13:41:02]:[INFO]:RS232: TRANSMIT: DEVACH
[2022-04-04 13:41:05]:[INFO]:IMAGE PROCESS: DEVACH:cam4
[2022-04-04 13:41:05]:[INFO]:RS232: TRANSMIT: DEVACH
[2022-04-04 13:41:05]:[INFO]:IMAGE PROCESS: DEVACH:cam3
[2022-04-04 13:41:05]:[INFO]:RS232: TRANSMIT: DEVACH
[2022-04-04 13:41:05]:[INFO]:IMAGE PROCESS: DEVACH:cam4
[2022-04-04 13:41:05]:[INFO]:RS232: TRANSMIT: DEVACH
[2022-04-04 13:41:05]:[INFO]:IMAGE PROCESS: DEVACH:cam3
[2022-04-04 13:41:05]:[INFO]:RS232: TRANSMIT: DEVACH
[2022-04-04 13:41:05]:[INFO]:IMAGE PROCESS: DEVACH:cam4
[2022-04-04 13:41:05]:[INFO]:RS232: TRANSMIT: DEVACH
[2022-04-04 13:41:06]:[INFO]:IMAGE PROCESS: DEVACH:cam3
[2022-04-04 13:41:06]:[INFO]:RS232: TRANSMIT: DEVACH
[2022-04-04 13:41:06]:[INFO]:IMAGE PROCESS: DEVACH:cam4
[2022-04-04 13:41:06]:[INFO]:RS232: TRANSMIT: DEVACH
[2022-04-04 13:41:06]:[INFO]:IMAGE PROCESS: DEVACH:cam3
[2022-04-04 13:41:06]:[INFO]:RS232: TRANSMIT: DEVACH
[2022-04-04 13:41:06]:[INFO]:IMAGE PROCESS: DEVACH:cam4
[2022-04-04 13:41:06]:[INFO]:RS232: TRANSMIT: DEVACH
[2022-04-04 13:41:06]:[INFO]:IMAGE PROCESS: DEVACH:cam3
[2022-04-04 13:41:06]:[INFO]:RS232: TRANSMIT: DEVACH
[2022-04-04 13:41:06]:[INFO]:IMAGE PROCESS: DEVACH:cam4
[2022-04-04 13:41:06]:[INFO]:RS232: TRANSMIT: DEVACH
[2022-04-04 13:41:07]:[INFO]:IMAGE PROCESS: DEVACH:cam3
[2022-04-04 13:41:07]:[INFO]:RS232: TRANSMIT: DEVACH
[2022-04-04 13:41:07]:[INFO]:IMAGE PROCESS: DEVACH:cam4
[2022-04-04 13:41:07]:[INFO]:RS232: TRANSMIT: DEVACH
[2022-04-04 13:41:07]:[INFO]:IMAGE PROCESS: DEVACH:cam3
[2022-04-04 13:41:07]:[INFO]:RS232: TRANSMIT: DEVACH
[2022-04-04 13:41:07]:[INFO]:IMAGE PROCESS: DEVACH:cam4
[2022-04-04 13:41:07]:[INFO]:RS232: TRANSMIT: DEVACH
[2022-04-04 13:41:07]:[INFO]:IMAGE PROCESS: DEVACH:cam3
[2022-04-04 13:41:07]:[INFO]:RS232: TRANSMIT: DEVACH
[2022-04-04 13:41:07]:[INFO]:IMAGE PROCESS: DEVACH:cam4
[2022-04-04 13:41:07]:[INFO]:RS232: TRANSMIT: DEVACH
[2022-04-04 13:41:08]:[INFO]:IMAGE PROCESS: DEVACH:cam3
[2022-04-04 13:41:08]:[INFO]:RS232: TRANSMIT: DEVACH
[2022-04-04 13:41:08]:[INFO]:IMAGE PROCESS: DEVACH:cam4
[2022-04-04 13:41:08]:[INFO]:RS232: TRANSMIT: DEVACH
[2022-04-04 13:41:08]:[INFO]:IMAGE PROCESS: DEVACH:cam3
[2022-04-04 13:41:08]:[INFO]:RS232: TRANSMIT: DEVACH
[2022-04-04 13:41:08]:[INFO]:IMAGE PROCESS: DEVACH:cam4
[2022-04-04 13:41:08]:[INFO]:RS232: TRANSMIT: DEVACH
[2022-04-04 13:41:08]:[INFO]:IMAGE PROCESS: DEVACH:cam3
[2022-04-04 13:41:08]:[INFO]:RS232: TRANSMIT: DEVACH
[2022-04-04 13:41:09]:[INFO]:IMAGE PROCESS: DEVACH:cam4
[2022-04-04 13:41:09]:[INFO]:RS232: TRANSMIT: DEVACH
[2022-04-04 13:41:09]:[INFO]:IMAGE PROCESS: DEVACH:cam3
[2022-04-04 13:41:09]:[INFO]:RS232: TRANSMIT: DEVACH
[2022-04-04 13:41:09]:[INFO]:IMAGE PROCESS: DEVACH:cam4
[2022-04-04 13:41:09]:[INFO]:RS232: TRANSMIT: DEVACH
[2022-04-04 13:41:09]:[INFO]:IMAGE PROCESS: DEVACH:cam3
[2022-04-04 13:41:09]:[INFO]:RS232: TRANSMIT: DEVACH
[2022-04-04 13:41:09]:[INFO]:IMAGE PROCESS: DEVACH:cam4
[2022-04-04 13:41:09]:[INFO]:RS232: TRANSMIT: DEVACH
[2022-04-04 13:41:09]:[INFO]:IMAGE PROCESS: DEVACH:cam3
[2022-04-04 13:41:09]:[INFO]:RS232: TRANSMIT: DEVACH
[2022-04-04 13:41:10]:[INFO]:IMAGE PROCESS: DEVACH:cam4
[2022-04-04 13:41:10]:[INFO]:RS232: TRANSMIT: DEVACH
[2022-04-04 13:41:10]:[INFO]:IMAGE PROCESS: DEVACH:cam3
[2022-04-04 13:41:10]:[INFO]:RS232: TRANSMIT: DEVACH
[2022-04-04 13:41:10]:[INFO]:IMAGE PROCESS: DEVACH:cam4
[2022-04-04 13:41:10]:[INFO]:RS232: TRANSMIT: DEVACH
[2022-04-04 13:41:10]:[INFO]:IMAGE PROCESS: DEVACH:cam3
[2022-04-04 13:41:10]:[INFO]:RS232: TRANSMIT: DEVACH
[2022-04-04 13:41:10]:[INFO]:IMAGE PROCESS: DEVACH:cam4
[2022-04-04 13:41:10]:[INFO]:RS232: TRANSMIT: DEVACH
[2022-04-04 13:41:10]:[INFO]:IMAGE PROCESS: DEVACH:cam3
[2022-04-04 13:41:10]:[INFO]:RS232: TRANSMIT: DEVACH
[2022-04-04 13:41:11]:[INFO]:IMAGE PROCESS: DEVACH:cam4
[2022-04-04 13:41:11]:[INFO]:RS232: TRANSMIT: DEVACH
[2022-04-04 13:41:11]:[INFO]:IMAGE PROCESS: DEVACH:cam3
[2022-04-04 13:41:11]:[INFO]:RS232: TRANSMIT: DEVACH
[2022-04-04 13:41:11]:[INFO]:IMAGE PROCESS: DEVACH:cam4
[2022-04-04 13:41:11]:[INFO]:RS232: TRANSMIT: DEVACH
[2022-04-04 13:41:11]:[INFO]:IMAGE PROCESS: DEVACH:cam3
[2022-04-04 13:41:11]:[INFO]:RS232: TRANSMIT: DEVACH
[2022-04-04 13:41:11]:[INFO]:IMAGE PROCESS: DEVACH:cam4
[2022-04-04 13:41:11]:[INFO]:RS232: TRANSMIT: DEVACH
[2022-04-04 13:41:11]:[INFO]:IMAGE PROCESS: DEVACH:cam3
[2022-04-04 13:41:11]:[INFO]:RS232: TRANSMIT: DEVACH
[2022-04-04 13:41:12]:[INFO]:IMAGE PROCESS: DEVACH:cam4
[2022-04-04 13:41:12]:[INFO]:RS232: TRANSMIT: DEVACH
[2022-04-04 13:41:31]:[WARNING]:Can't open: cam3
[2022-04-04 13:41:31]:[INFO]:RS232: TRANSMIT: KDCAMERR:3
[2022-04-04 13:41:34]:[INFO]:LAYOUT: Da nhan nut STOP
[2022-04-04 13:41:34]:[INFO]:=====================*** STOP ***==================================================
[2022-04-04 13:41:34]:[INFO]:   +STOP: cam3
[2022-04-04 13:41:34]:[INFO]:   +STOP: cam4
[2022-04-04 13:41:34]:[INFO]:   +STOP: Image Process
[2022-04-04 13:41:34]:[ERROR]:Qua trinh xu ly anh loi:
Traceback (most recent call last):
  File ".\myLib\IDAProcess.py", line 224, in run
    queue = self.queue.get(True, 1)
  File "C:\Users\test\.conda\envs\torch\lib\multiprocessing\queues.py", line 104, in get
    if not self._poll(timeout):
  File "C:\Users\test\.conda\envs\torch\lib\multiprocessing\connection.py", line 257, in poll
    return self._poll(timeout)
  File "C:\Users\test\.conda\envs\torch\lib\multiprocessing\connection.py", line 330, in _poll
    return bool(wait([self], timeout))
  File "C:\Users\test\.conda\envs\torch\lib\multiprocessing\connection.py", line 863, in wait
    ov.cancel()
OSError: [WinError 6] The handle is invalid

[2022-04-04 13:41:34]:[ERROR]:Qua trinh xu ly anh loi:
Traceback (most recent call last):
  File ".\myLib\IDAProcess.py", line 224, in run
    queue = self.queue.get(True, 1)
  File "C:\Users\test\.conda\envs\torch\lib\multiprocessing\queues.py", line 104, in get
    if not self._poll(timeout):
  File "C:\Users\test\.conda\envs\torch\lib\multiprocessing\connection.py", line 255, in poll
    self._check_closed()
  File "C:\Users\test\.conda\envs\torch\lib\multiprocessing\connection.py", line 136, in _check_closed
    raise OSError("handle is closed")
OSError: handle is closed

[2022-04-04 13:41:34]:[INFO]:====================*** DA STOP ***================================================
[2022-04-04 13:41:34]:[INFO]:RS232: TRANSMIT: HDSTOPOK
[2022-04-04 13:41:36]:[INFO]:CAM is checking...
[2022-04-04 13:41:36]:[INFO]:RS232: TRANSMIT: KDCAMCHECKING
[2022-04-04 13:41:36]:[INFO]:KDCAMCHECK: CAM1 - ID CAM: D:\IDA\KetQuaBaiThi\Test_24012022\TS4_2412022\VideoBaiThi\BaiThiSo8\cam1\cam1.avi
[2022-04-04 13:41:36]:[INFO]:KDCAMCHECK: CAM2 - ID CAM: D:\IDA\KetQuaBaiThi\Test_24012022\TS4_2412022\VideoBaiThi\BaiThiSo8\cam2\cam2.avi
[2022-04-04 13:41:36]:[INFO]:KDCAMCHECK: CAM3 - ID CAM: D:\Backup\IDA\Video\Lan3\Cam3_4\2P\cam3\cam3.avi
[2022-04-04 13:41:36]:[INFO]:KDCAMCHECK: CAM4 - ID CAM: NONE
[2022-04-04 13:41:36]:[INFO]:KDCAMCHECK: CAM5 - ID CAM: D:\IDA\KetQuaBaiThi\Test_24012022\TS4_2412022\VideoBaiThi\BaiThiSo8\cam5\cam5.avi
[2022-04-04 13:41:36]:[INFO]:KDCAMCHECK: CAM6 - ID CAM: D:\IDA\KetQuaBaiThi\Test_24012022\TS4_2412022\VideoBaiThi\BaiThiSo8\cam6\cam6.avi
[2022-04-04 13:41:36]:[INFO]:RS232: TRANSMIT: KDCAMOK:1
[2022-04-04 13:41:36]:[INFO]:RS232: TRANSMIT: KDCAMOK:2
[2022-04-04 13:41:36]:[INFO]:RS232: TRANSMIT: KDCAMOK:3
[2022-04-04 13:41:36]:[INFO]:RS232: TRANSMIT: KDCAMERR:4
[2022-04-04 13:41:36]:[INFO]:RS232: TRANSMIT: KDCAMOK:5
[2022-04-04 13:41:36]:[INFO]:RS232: TRANSMIT: KDCAMOK:6
[2022-04-04 13:41:37]:[WARNING]:MAKEDIR: Ma TS rong! Tu dong tao ma TS: 
[2022-04-04 13:41:37]:[INFO]:MAKEDIR: FOLDER Thi sinh: TS7_442022
[2022-04-04 13:41:37]:[INFO]:LAYOUT: NEW:TS7
[2022-04-04 13:41:39]:[INFO]:LAYOUT: Da nhan nut START:HD
[2022-04-04 13:41:39]:[INFO]:Creat Log File: D:/IDA/KetQuaBaiThi/Test_04042022/TS7_442022/Log.log
[2022-04-04 13:41:39]:[INFO]:File Created:
[2022-04-04 13:41:39]:[INFO]:


================================================*** START: HD ***================================================
[2022-04-04 13:41:39]:[INFO]:   +SEGMEN Process
[2022-04-04 13:41:39]:[INFO]:   *** Process: START ***
[2022-04-04 13:41:39]:[INFO]:   +ID Process: cam3, cam4
[2022-04-04 13:41:39]:[INFO]:   +STARTED: cam3
[2022-04-04 13:41:39]:[INFO]:   *** Process: RUNNING ***
[2022-04-04 13:41:39]:[INFO]:===================*** Da start ***================================================

[2022-04-04 13:41:39]:[INFO]:RS232: TRANSMIT: HDREADY
[2022-04-04 13:41:54]:[INFO]:IMAGE PROCESS: DEVACH:cam3
[2022-04-04 13:41:54]:[INFO]:RS232: TRANSMIT: DEVACH
[2022-04-04 13:41:54]:[INFO]:IMAGE PROCESS: DEVACH:cam3
[2022-04-04 13:41:54]:[INFO]:RS232: TRANSMIT: DEVACH
[2022-04-04 13:41:54]:[INFO]:IMAGE PROCESS: DEVACH:cam3
[2022-04-04 13:41:54]:[INFO]:RS232: TRANSMIT: DEVACH
[2022-04-04 13:41:55]:[INFO]:IMAGE PROCESS: DEVACH:cam3
[2022-04-04 13:41:55]:[INFO]:RS232: TRANSMIT: DEVACH
[2022-04-04 13:41:55]:[INFO]:IMAGE PROCESS: DEVACH:cam3
[2022-04-04 13:41:55]:[INFO]:RS232: TRANSMIT: DEVACH
[2022-04-04 13:41:55]:[INFO]:IMAGE PROCESS: DEVACH:cam3
[2022-04-04 13:41:55]:[INFO]:RS232: TRANSMIT: DEVACH
[2022-04-04 13:41:56]:[INFO]:IMAGE PROCESS: DEVACH:cam3
[2022-04-04 13:41:56]:[INFO]:RS232: TRANSMIT: DEVACH
[2022-04-04 13:41:56]:[INFO]:IMAGE PROCESS: DEVACH:cam3
[2022-04-04 13:41:56]:[INFO]:RS232: TRANSMIT: DEVACH
[2022-04-04 13:41:56]:[INFO]:IMAGE PROCESS: DEVACH:cam3
[2022-04-04 13:41:56]:[INFO]:RS232: TRANSMIT: DEVACH
[2022-04-04 13:41:57]:[INFO]:IMAGE PROCESS: DEVACH:cam3
[2022-04-04 13:41:57]:[INFO]:RS232: TRANSMIT: DEVACH
[2022-04-04 13:42:10]:[INFO]:IMAGE PROCESS: DEVACH:cam3
[2022-04-04 13:42:11]:[INFO]:RS232: TRANSMIT: DEVACH
[2022-04-04 13:42:11]:[INFO]:IMAGE PROCESS: DEVACH:cam3
[2022-04-04 13:42:11]:[INFO]:RS232: TRANSMIT: DEVACH
[2022-04-04 13:42:11]:[INFO]:IMAGE PROCESS: DEVACH:cam3
[2022-04-04 13:42:11]:[INFO]:RS232: TRANSMIT: DEVACH
[2022-04-04 13:42:12]:[INFO]:IMAGE PROCESS: DEVACH:cam3
[2022-04-04 13:42:12]:[INFO]:RS232: TRANSMIT: DEVACH
[2022-04-04 13:42:12]:[INFO]:IMAGE PROCESS: DEVACH:cam3
[2022-04-04 13:42:12]:[INFO]:RS232: TRANSMIT: DEVACH
[2022-04-04 13:42:12]:[INFO]:IMAGE PROCESS: DEVACH:cam3
[2022-04-04 13:42:12]:[INFO]:RS232: TRANSMIT: DEVACH
[2022-04-04 13:42:13]:[INFO]:IMAGE PROCESS: DEVACH:cam3
[2022-04-04 13:42:13]:[INFO]:RS232: TRANSMIT: DEVACH
[2022-04-04 13:42:13]:[INFO]:IMAGE PROCESS: DEVACH:cam3
[2022-04-04 13:42:13]:[INFO]:RS232: TRANSMIT: DEVACH
[2022-04-04 13:42:13]:[INFO]:IMAGE PROCESS: DEVACH:cam3
[2022-04-04 13:42:13]:[INFO]:RS232: TRANSMIT: DEVACH
[2022-04-04 13:42:14]:[INFO]:IMAGE PROCESS: DEVACH:cam3
[2022-04-04 13:42:14]:[INFO]:RS232: TRANSMIT: DEVACH
[2022-04-04 13:42:15]:[INFO]:IMAGE PROCESS: DEVACH:cam3
[2022-04-04 13:42:15]:[INFO]:RS232: TRANSMIT: DEVACH
[2022-04-04 13:42:15]:[INFO]:IMAGE PROCESS: DEVACH:cam3
[2022-04-04 13:42:15]:[INFO]:RS232: TRANSMIT: DEVACH
[2022-04-04 13:42:30]:[INFO]:IMAGE PROCESS: DEVACH:cam3
[2022-04-04 13:42:30]:[INFO]:RS232: TRANSMIT: DEVACH
[2022-04-04 13:42:30]:[INFO]:IMAGE PROCESS: DEVACH:cam3
[2022-04-04 13:42:30]:[INFO]:RS232: TRANSMIT: DEVACH
[2022-04-04 13:42:31]:[INFO]:IMAGE PROCESS: DEVACH:cam3
[2022-04-04 13:42:31]:[INFO]:RS232: TRANSMIT: DEVACH
[2022-04-04 13:42:31]:[INFO]:IMAGE PROCESS: DEVACH:cam3
[2022-04-04 13:42:31]:[INFO]:RS232: TRANSMIT: DEVACH
[2022-04-04 13:42:31]:[INFO]:IMAGE PROCESS: DEVACH:cam3
[2022-04-04 13:42:31]:[INFO]:RS232: TRANSMIT: DEVACH
[2022-04-04 13:42:32]:[INFO]:IMAGE PROCESS: DEVACH:cam3
[2022-04-04 13:42:32]:[INFO]:RS232: TRANSMIT: DEVACH
[2022-04-04 13:42:50]:[INFO]:IMAGE PROCESS: DEVACH:cam3
[2022-04-04 13:42:50]:[INFO]:RS232: TRANSMIT: DEVACH
[2022-04-04 13:42:51]:[INFO]:IMAGE PROCESS: DEVACH:cam3
[2022-04-04 13:42:51]:[INFO]:RS232: TRANSMIT: DEVACH
[2022-04-04 13:42:51]:[INFO]:IMAGE PROCESS: DEVACH:cam3
[2022-04-04 13:42:51]:[INFO]:RS232: TRANSMIT: DEVACH
[2022-04-04 13:42:55]:[INFO]:IMAGE PROCESS: DEVACH:cam3
[2022-04-04 13:42:55]:[INFO]:RS232: TRANSMIT: DEVACH
[2022-04-04 13:42:55]:[INFO]:IMAGE PROCESS: DEVACH:cam3
[2022-04-04 13:42:55]:[INFO]:RS232: TRANSMIT: DEVACH
[2022-04-04 13:42:55]:[INFO]:IMAGE PROCESS: DEVACH:cam3
[2022-04-04 13:42:55]:[INFO]:RS232: TRANSMIT: DEVACH
[2022-04-04 13:42:56]:[INFO]:IMAGE PROCESS: DEVACH:cam3
[2022-04-04 13:42:56]:[INFO]:RS232: TRANSMIT: DEVACH
[2022-04-04 13:42:56]:[INFO]:IMAGE PROCESS: DEVACH:cam3
[2022-04-04 13:42:56]:[INFO]:RS232: TRANSMIT: DEVACH
[2022-04-04 13:42:56]:[INFO]:IMAGE PROCESS: DEVACH:cam3
[2022-04-04 13:42:56]:[INFO]:RS232: TRANSMIT: DEVACH
[2022-04-04 13:42:57]:[INFO]:IMAGE PROCESS: DEVACH:cam3
[2022-04-04 13:42:57]:[INFO]:RS232: TRANSMIT: DEVACH
[2022-04-04 13:42:57]:[INFO]:IMAGE PROCESS: DEVACH:cam3
[2022-04-04 13:42:57]:[INFO]:RS232: TRANSMIT: DEVACH
[2022-04-04 13:42:57]:[INFO]:IMAGE PROCESS: DEVACH:cam3
[2022-04-04 13:42:57]:[INFO]:RS232: TRANSMIT: DEVACH
[2022-04-04 13:42:58]:[INFO]:IMAGE PROCESS: DEVACH:cam3
[2022-04-04 13:42:58]:[INFO]:RS232: TRANSMIT: DEVACH
[2022-04-04 13:42:58]:[INFO]:IMAGE PROCESS: DEVACH:cam3
[2022-04-04 13:42:58]:[INFO]:RS232: TRANSMIT: DEVACH
[2022-04-04 13:42:58]:[INFO]:IMAGE PROCESS: DEVACH:cam3
[2022-04-04 13:42:58]:[INFO]:RS232: TRANSMIT: DEVACH
[2022-04-04 13:42:59]:[INFO]:IMAGE PROCESS: DEVACH:cam3
[2022-04-04 13:42:59]:[INFO]:RS232: TRANSMIT: DEVACH
[2022-04-04 13:42:59]:[INFO]:IMAGE PROCESS: DEVACH:cam3
[2022-04-04 13:42:59]:[INFO]:RS232: TRANSMIT: DEVACH
[2022-04-04 13:43:00]:[INFO]:IMAGE PROCESS: DEVACH:cam3
[2022-04-04 13:43:00]:[INFO]:RS232: TRANSMIT: DEVACH
[2022-04-04 13:43:00]:[INFO]:IMAGE PROCESS: DEVACH:cam3
[2022-04-04 13:43:00]:[INFO]:RS232: TRANSMIT: DEVACH
[2022-04-04 13:43:19]:[WARNING]:Can't open: cam3
[2022-04-04 13:43:19]:[WARNING]:FORCE STOP: : cam3, cam4
[2022-04-04 13:43:19]:[WARNING]:   +STOP: cam3
[2022-04-04 13:43:19]:[WARNING]:   +STOP: cam4
[2022-04-04 13:43:19]:[WARNING]:====================================================

[2022-04-04 13:43:19]:[INFO]:RS232: TRANSMIT: KDCAMERR:3
[2022-04-04 13:43:19]:[INFO]:=====================*** STOP ***==================================================
[2022-04-04 13:43:19]:[INFO]:   +STOP: cam3
[2022-04-04 13:43:19]:[INFO]:   +STOP: cam4
[2022-04-04 13:43:19]:[INFO]:   +STOP: Image Process
[2022-04-04 13:43:19]:[ERROR]:Qua trinh xu ly anh loi:
Traceback (most recent call last):
  File ".\myLib\IDAProcess.py", line 224, in run
    queue = self.queue.get(True, 1)
  File "C:\Users\test\.conda\envs\torch\lib\multiprocessing\queues.py", line 104, in get
    if not self._poll(timeout):
  File "C:\Users\test\.conda\envs\torch\lib\multiprocessing\connection.py", line 257, in poll
    return self._poll(timeout)
  File "C:\Users\test\.conda\envs\torch\lib\multiprocessing\connection.py", line 330, in _poll
    return bool(wait([self], timeout))
  File "C:\Users\test\.conda\envs\torch\lib\multiprocessing\connection.py", line 863, in wait
    ov.cancel()
OSError: [WinError 6] The handle is invalid

[2022-04-04 13:43:19]:[ERROR]:Qua trinh xu ly anh loi:
Traceback (most recent call last):
  File ".\myLib\IDAProcess.py", line 224, in run
    queue = self.queue.get(True, 1)
  File "C:\Users\test\.conda\envs\torch\lib\multiprocessing\queues.py", line 104, in get
    if not self._poll(timeout):
  File "C:\Users\test\.conda\envs\torch\lib\multiprocessing\connection.py", line 255, in poll
    self._check_closed()
  File "C:\Users\test\.conda\envs\torch\lib\multiprocessing\connection.py", line 136, in _check_closed
    raise OSError("handle is closed")
OSError: handle is closed

[2022-04-04 13:43:19]:[INFO]:====================*** DA STOP ***================================================
[2022-04-04 13:43:19]:[INFO]:RS232: TRANSMIT: HDSTOPOK
